﻿# Wavefront OBJ file automatically generated by Tiled2Unity

# Vertices (Count = 347)
v -208 -8 0
v -240 -8 0
v -240 24 0
v -208 24 0
v -224 -16 0
v -256 -16 0
v -256 16 0
v -224 16 0
v -240 -24 0
v -272 -24 0
v -272 8 0
v -240 8 0
v -256 -32 0
v -288 -32 0
v -288 0 0
v -256 0 0
v -272 -40 0
v -304 -40 0
v -304 -8 0
v -272 -8 0
v -288 -48 0
v -320 -48 0
v -320 -16 0
v -288 -16 0
v -304 -56 0
v -336 -56 0
v -336 -24 0
v -304 -24 0
v -320 -64 0
v -352 -64 0
v -352 -32 0
v -320 -32 0
v -336 -72 0
v -368 -72 0
v -368 -40 0
v -336 -40 0
v -352 -80 0
v -384 -80 0
v -384 -48 0
v -352 -48 0
v -368 -88 0
v -400 -88 0
v -400 -56 0
v -368 -56 0
v -192 -16 0
v -192 16 0
v -208 -24 0
v -208 8 0
v -224 -32 0
v -224 0 0
v -240 -40 0
v -256 -48 0
v -272 -56 0
v -288 -64 0
v -304 -72 0
v -320 -80 0
v -336 -88 0
v -352 -96 0
v -384 -96 0
v -384 -64 0
v -176 -24 0
v -176 8 0
v -192 -32 0
v -192 0 0
v -208 -40 0
v -224 -48 0
v -240 -56 0
v -256 -64 0
v -272 -72 0
v -288 -80 0
v -304 -88 0
v -320 -96 0
v -336 -104 0
v -368 -104 0
v -160 -32 0
v -160 0 0
v -176 -40 0
v -176 -8 0
v -192 -48 0
v -208 -56 0
v -224 -64 0
v -240 -72 0
v -256 -80 0
v -272 -88 0
v -288 -96 0
v -304 -104 0
v -320 -112 0
v -352 -112 0
v -144 -40 0
v -144 -8 0
v -160 -48 0
v -160 -16 0
v -176 -56 0
v -192 -64 0
v -208 -72 0
v -224 -80 0
v -240 -88 0
v -256 -96 0
v -272 -104 0
v -288 -112 0
v -304 -120 0
v -336 -120 0
v -128 -48 0
v -128 -16 0
v -144 -56 0
v -144 -24 0
v -160 -64 0
v -176 -72 0
v -192 -80 0
v -208 -88 0
v -224 -96 0
v -240 -104 0
v -256 -112 0
v -272 -120 0
v -288 -128 0
v -320 -128 0
v -112 -56 0
v -112 -24 0
v -128 -64 0
v -128 -32 0
v -144 -72 0
v -160 -80 0
v -176 -88 0
v -192 -96 0
v -208 -104 0
v -224 -112 0
v -240 -120 0
v -256 -128 0
v -272 -136 0
v -304 -136 0
v -96 -64 0
v -96 -32 0
v -112 -72 0
v -112 -40 0
v -128 -80 0
v -144 -88 0
v -160 -96 0
v -176 -104 0
v -192 -112 0
v -208 -120 0
v -224 -128 0
v -240 -136 0
v -256 -144 0
v -288 -144 0
v -80 -72 0
v -80 -40 0
v -96 -80 0
v -96 -48 0
v -112 -88 0
v -128 -96 0
v -144 -104 0
v -160 -112 0
v -176 -120 0
v -192 -128 0
v -208 -136 0
v -224 -144 0
v -240 -152 0
v -272 -152 0
v -64 -80 0
v -64 -48 0
v -80 -88 0
v -80 -56 0
v -96 -96 0
v -112 -104 0
v -128 -112 0
v -144 -120 0
v -160 -128 0
v -176 -136 0
v -192 -144 0
v -208 -152 0
v -224 -160 0
v -256 -160 0
v -48 -88 0
v -48 -56 0
v -64 -96 0
v -64 -64 0
v -80 -104 0
v -96 -112 0
v -112 -120 0
v -128 -128 0
v -144 -136 0
v -160 -144 0
v -176 -152 0
v -192 -160 0
v -208 -168 0
v -240 -168 0
v -32 -96 0
v -32 -64 0
v -48 -104 0
v -48 -72 0
v -64 -112 0
v -80 -120 0
v -96 -128 0
v -112 -136 0
v -128 -144 0
v -144 -152 0
v -160 -160 0
v -176 -168 0
v -192 -176 0
v -224 -176 0
v -236 -38 0
v -268 -38 0
v -268 -6 0
v -236 -6 0
v -248 -44 0
v -280 -44 0
v -280 -12 0
v -248 -12 0
v -260 -50 0
v -292 -50 0
v -292 -18 0
v -260 -18 0
v -284 -62 0
v -316 -62 0
v -316 -30 0
v -284 -30 0
v -296 -68 0
v -328 -68 0
v -328 -36 0
v -296 -36 0
v -308 -74 0
v -340 -74 0
v -340 -42 0
v -308 -42 0
v -316 -78 0
v -348 -78 0
v -348 -46 0
v -316 -46 0
v -196 -30 0
v -228 -30 0
v -228 2 0
v -196 2 0
v -184 -36 0
v -216 -36 0
v -216 -4 0
v -184 -4 0
v -172 -42 0
v -204 -42 0
v -204 -10 0
v -172 -10 0
v -148 -54 0
v -180 -54 0
v -180 -22 0
v -148 -22 0
v -136 -60 0
v -168 -60 0
v -168 -28 0
v -136 -28 0
v -124 -66 0
v -156 -66 0
v -156 -34 0
v -124 -34 0
v -100 -78 0
v -132 -78 0
v -132 -46 0
v -100 -46 0
v -88 -84 0
v -120 -84 0
v -120 -52 0
v -88 -52 0
v -304 -84 0
v -336 -84 0
v -336 -52 0
v -304 -52 0
v -292 -90 0
v -324 -90 0
v -324 -58 0
v -292 -58 0
v -232 -120 0
v -264 -120 0
v -264 -88 0
v -232 -88 0
v -220 -126 0
v -252 -126 0
v -252 -94 0
v -220 -94 0
v -208 -132 0
v -240 -132 0
v -240 -100 0
v -208 -100 0
v -100 -90 0
v -132 -90 0
v -132 -58 0
v -100 -58 0
v -112 -96 0
v -144 -96 0
v -144 -64 0
v -112 -64 0
v -124 -102 0
v -156 -102 0
v -156 -70 0
v -124 -70 0
v -136 -108 0
v -168 -108 0
v -168 -76 0
v -136 -76 0
v -148 -114 0
v -180 -114 0
v -180 -82 0
v -148 -82 0
v -160 -120 0
v -192 -120 0
v -192 -88 0
v -160 -88 0
v -172 -126 0
v -204 -126 0
v -204 -94 0
v -172 -94 0
v -184 -132 0
v -216 -132 0
v -216 -100 0
v -184 -100 0
v -196 -138 0
v -228 -138 0
v -228 -106 0
v -196 -106 0
v -264 -104 0
v -296 -104 0
v -296 -72 0
v -264 -72 0
v -292 -74 0
v -324 -74 0
v -324 -42 0
v -292 -42 0
v -232 -104 0
v -232 -72 0
v -168 -80 0
v -176 -80 0
v -168 -72 0
v -160 -72 0
v -152 -80 0
v -152 -72 0
v -144 -80 0
v -160 -56 0
v -168 -56 0
v -168 -48 0
v -152 -56 0
v -152 -48 0
v -168 -64 0
v -176 -64 0
v -152 -64 0
v -208 -44 0
v -240 -44 0
v -240 -12 0
v -208 -12 0
v -228 -50 0
v -228 -18 0

# Texture cooridinates (Count = 84)
vt 0.3750153 0.7500153
vt 0.4999847 0.7500153
vt 0.4999847 0.8749847
vt 0.3750153 0.8749847
vt 0.6250153 0.7500153
vt 0.7499847 0.7500153
vt 0.7499847 0.8749847
vt 0.6250153 0.8749847
vt 0.2500153 0.3750153
vt 0.3749847 0.3750153
vt 0.3749847 0.4999847
vt 0.2500153 0.4999847
vt 0.2500153 0.2500153
vt 0.3749847 0.2500153
vt 0.3749847 0.3749847
vt 0.2500153 0.3749847
vt 0.2500153 0.5000153
vt 0.3749847 0.5000153
vt 0.3749847 0.6249847
vt 0.2500153 0.6249847
vt 0.8437538 0.8750038
vt 0.8749962 0.8750038
vt 0.8749962 0.9062462
vt 0.8437538 0.9062462
vt 0.8125038 0.8750038
vt 0.8437462 0.8750038
vt 0.8437462 0.9062462
vt 0.8125038 0.9062462
vt 0.7812538 0.8750038
vt 0.8124962 0.8750038
vt 0.8124962 0.9062462
vt 0.7812538 0.9062462
vt 0.7500038 0.8750038
vt 0.7812462 0.8750038
vt 0.7812462 0.9062462
vt 0.7500038 0.9062462
vt 0.8125038 0.9687538
vt 0.8437462 0.9687538
vt 0.8437462 0.9999962
vt 0.8125038 0.9999962
vt 0.7812538 0.9687538
vt 0.8124962 0.9687538
vt 0.8124962 0.9999962
vt 0.7812538 0.9999962
vt 0.8437538 0.9375038
vt 0.8749962 0.9375038
vt 0.8749962 0.9687462
vt 0.8437538 0.9687462
vt 0.8125038 0.9375038
vt 0.8437462 0.9375038
vt 0.8437462 0.9687462
vt 0.8125038 0.9687462
vt 0.7812538 0.9375038
vt 0.8124962 0.9375038
vt 0.8124962 0.9687462
vt 0.7812538 0.9687462
vt 0.8437538 0.9062538
vt 0.8749962 0.9062538
vt 0.8749962 0.9374962
vt 0.8437538 0.9374962
vt 0.7500038 0.9375038
vt 0.7812462 0.9375038
vt 0.7812462 0.9687462
vt 0.7500038 0.9687462
vt 0.8125038 0.9062538
vt 0.8437462 0.9062538
vt 0.8437462 0.9374962
vt 0.8125038 0.9374962
vt 0.7812538 0.9062538
vt 0.8124962 0.9062538
vt 0.8124962 0.9374962
vt 0.7812538 0.9374962
vt 0.7500038 0.9062538
vt 0.7812462 0.9062538
vt 0.7812462 0.9374962
vt 0.7500038 0.9374962
vt 0.2500153 0.1250153
vt 0.3749847 0.1250153
vt 0.3749847 0.2499847
vt 0.2500153 0.2499847
vt 0.8750153 0.8750153
vt 0.9999847 0.8750153
vt 0.9999847 0.9999847
vt 0.8750153 0.9999847

# Normal
vn 0 0 -1

# Groups (Count = 9)

g mesh_0002
f 1/1/1 2/2/1 3/3/1 4/4/1
f 5/1/1 6/2/1 7/3/1 8/4/1
f 9/1/1 10/2/1 11/3/1 12/4/1
f 13/1/1 14/2/1 15/3/1 16/4/1
f 17/1/1 18/2/1 19/3/1 20/4/1
f 21/1/1 22/2/1 23/3/1 24/4/1
f 25/1/1 26/2/1 27/3/1 28/4/1
f 29/1/1 30/2/1 31/3/1 32/4/1
f 33/1/1 34/2/1 35/3/1 36/4/1
f 37/1/1 38/2/1 39/3/1 40/4/1
f 41/1/1 42/2/1 43/3/1 44/4/1
f 45/1/1 5/2/1 8/3/1 46/4/1
f 47/1/1 9/2/1 12/3/1 48/4/1
f 49/1/1 13/2/1 16/3/1 50/4/1
f 51/1/1 17/2/1 20/3/1 2/4/1
f 52/1/1 21/2/1 24/3/1 6/4/1
f 53/1/1 25/2/1 28/3/1 10/4/1
f 54/1/1 29/2/1 32/3/1 14/4/1
f 55/1/1 33/2/1 36/3/1 18/4/1
f 56/1/1 37/2/1 40/3/1 22/4/1
f 57/1/1 41/2/1 44/3/1 26/4/1
f 58/1/1 59/2/1 60/3/1 30/4/1
f 61/1/1 47/2/1 48/3/1 62/4/1
f 63/1/1 49/2/1 50/3/1 64/4/1
f 65/1/1 51/2/1 2/3/1 1/4/1
f 66/1/1 52/2/1 6/3/1 5/4/1
f 67/1/1 53/2/1 10/3/1 9/4/1
f 68/1/1 54/2/1 14/3/1 13/4/1
f 69/1/1 55/2/1 18/3/1 17/4/1
f 70/1/1 56/2/1 22/3/1 21/4/1
f 71/1/1 57/2/1 26/3/1 25/4/1
f 72/1/1 58/2/1 30/3/1 29/4/1
f 73/1/1 74/2/1 34/3/1 33/4/1
f 75/1/1 63/2/1 64/3/1 76/4/1
f 77/1/1 65/2/1 1/3/1 78/4/1
f 79/1/1 66/2/1 5/3/1 45/4/1
f 80/1/1 67/2/1 9/3/1 47/4/1
f 81/1/1 68/2/1 13/3/1 49/4/1
f 82/1/1 69/2/1 17/3/1 51/4/1
f 83/1/1 70/2/1 21/3/1 52/4/1
f 84/1/1 71/2/1 25/3/1 53/4/1
f 85/1/1 72/2/1 29/3/1 54/4/1
f 86/1/1 73/2/1 33/3/1 55/4/1
f 87/1/1 88/2/1 37/3/1 56/4/1
f 89/1/1 77/2/1 78/3/1 90/4/1
f 91/1/1 79/2/1 45/3/1 92/4/1
f 93/1/1 80/2/1 47/3/1 61/4/1
f 94/1/1 81/2/1 49/3/1 63/4/1
f 95/1/1 82/2/1 51/3/1 65/4/1
f 96/1/1 83/2/1 52/3/1 66/4/1
f 97/1/1 84/2/1 53/3/1 67/4/1
f 98/1/1 85/2/1 54/3/1 68/4/1
f 99/1/1 86/2/1 55/3/1 69/4/1
f 100/5/1 87/6/1 56/7/1 70/8/1
f 101/5/1 102/6/1 57/7/1 71/8/1
f 103/1/1 91/2/1 92/3/1 104/4/1
f 105/1/1 93/2/1 61/3/1 106/4/1
f 107/1/1 94/2/1 63/3/1 75/4/1
f 108/1/1 95/2/1 65/3/1 77/4/1
f 109/1/1 96/2/1 66/3/1 79/4/1
f 110/1/1 97/2/1 67/3/1 80/4/1
f 111/1/1 98/2/1 68/3/1 81/4/1
f 112/1/1 99/2/1 69/3/1 82/4/1
f 113/1/1 100/2/1 70/3/1 83/4/1
f 114/5/1 101/6/1 71/7/1 84/8/1
f 115/5/1 116/6/1 72/7/1 85/8/1
f 117/1/1 105/2/1 106/3/1 118/4/1
f 119/1/1 107/2/1 75/3/1 120/4/1
f 121/1/1 108/2/1 77/3/1 89/4/1
f 122/1/1 109/2/1 79/3/1 91/4/1
f 123/1/1 110/2/1 80/3/1 93/4/1
f 124/1/1 111/2/1 81/3/1 94/4/1
f 125/1/1 112/2/1 82/3/1 95/4/1
f 126/1/1 113/2/1 83/3/1 96/4/1
f 127/1/1 114/2/1 84/3/1 97/4/1
f 128/5/1 115/6/1 85/7/1 98/8/1
f 129/5/1 130/6/1 86/7/1 99/8/1
f 131/1/1 119/2/1 120/3/1 132/4/1
f 133/1/1 121/2/1 89/3/1 134/4/1
f 135/1/1 122/2/1 91/3/1 103/4/1
f 136/1/1 123/2/1 93/3/1 105/4/1
f 137/1/1 124/2/1 94/3/1 107/4/1
f 138/1/1 125/2/1 95/3/1 108/4/1
f 139/1/1 126/2/1 96/3/1 109/4/1
f 140/1/1 127/2/1 97/3/1 110/4/1
f 141/1/1 128/2/1 98/3/1 111/4/1
f 142/5/1 129/6/1 99/7/1 112/8/1
f 143/5/1 144/6/1 100/7/1 113/8/1
f 145/1/1 133/2/1 134/3/1 146/4/1
f 147/1/1 135/2/1 103/3/1 148/4/1
f 149/1/1 136/2/1 105/3/1 117/4/1
f 150/1/1 137/2/1 107/3/1 119/4/1
f 151/1/1 138/2/1 108/3/1 121/4/1
f 152/1/1 139/2/1 109/3/1 122/4/1
f 153/1/1 140/2/1 110/3/1 123/4/1
f 154/1/1 141/2/1 111/3/1 124/4/1
f 155/1/1 142/2/1 112/3/1 125/4/1
f 156/1/1 143/2/1 113/3/1 126/4/1
f 157/1/1 158/2/1 114/3/1 127/4/1
f 159/1/1 147/2/1 148/3/1 160/4/1
f 161/1/1 149/2/1 117/3/1 162/4/1
f 163/1/1 150/2/1 119/3/1 131/4/1
f 164/1/1 151/2/1 121/3/1 133/4/1
f 165/1/1 152/2/1 122/3/1 135/4/1
f 166/1/1 153/2/1 123/3/1 136/4/1
f 167/1/1 154/2/1 124/3/1 137/4/1
f 168/1/1 155/2/1 125/3/1 138/4/1
f 169/1/1 156/2/1 126/3/1 139/4/1
f 170/1/1 157/2/1 127/3/1 140/4/1
f 171/1/1 172/2/1 128/3/1 141/4/1
f 173/1/1 161/2/1 162/3/1 174/4/1
f 175/1/1 163/2/1 131/3/1 176/4/1
f 177/1/1 164/2/1 133/3/1 145/4/1
f 178/1/1 165/2/1 135/3/1 147/4/1
f 179/1/1 166/2/1 136/3/1 149/4/1
f 180/1/1 167/2/1 137/3/1 150/4/1
f 181/1/1 168/2/1 138/3/1 151/4/1
f 182/1/1 169/2/1 139/3/1 152/4/1
f 183/1/1 170/2/1 140/3/1 153/4/1
f 184/1/1 171/2/1 141/3/1 154/4/1
f 185/1/1 186/2/1 142/3/1 155/4/1
f 187/1/1 175/2/1 176/3/1 188/4/1
f 189/1/1 177/2/1 145/3/1 190/4/1
f 191/1/1 178/2/1 147/3/1 159/4/1
f 192/1/1 179/2/1 149/3/1 161/4/1
f 193/1/1 180/2/1 150/3/1 163/4/1
f 194/1/1 181/2/1 151/3/1 164/4/1
f 195/1/1 182/2/1 152/3/1 165/4/1
f 196/1/1 183/2/1 153/3/1 166/4/1
f 197/1/1 184/2/1 154/3/1 167/4/1
f 198/1/1 185/2/1 155/3/1 168/4/1
f 199/1/1 200/2/1 156/3/1 169/4/1

g mesh_0003
f 47/9/1 9/10/1 12/11/1 48/12/1
f 49/9/1 13/10/1 16/11/1 50/12/1
f 201/9/1 202/10/1 203/11/1 204/12/1
f 205/9/1 206/10/1 207/11/1 208/12/1
f 209/9/1 210/10/1 211/11/1 212/12/1
f 53/9/1 25/10/1 28/11/1 10/12/1
f 213/9/1 214/10/1 215/11/1 216/12/1
f 217/9/1 218/10/1 219/11/1 220/12/1
f 221/9/1 222/10/1 223/11/1 224/12/1
f 225/9/1 226/10/1 227/11/1 228/12/1
f 229/9/1 230/10/1 231/11/1 232/12/1
f 233/9/1 234/10/1 235/11/1 236/12/1
f 237/9/1 238/10/1 239/11/1 240/12/1
f 91/9/1 79/10/1 45/11/1 92/12/1
f 241/9/1 242/10/1 243/11/1 244/12/1
f 245/9/1 246/10/1 247/11/1 248/12/1
f 249/9/1 250/10/1 251/11/1 252/12/1
f 133/9/1 121/10/1 89/11/1 134/12/1
f 253/9/1 254/10/1 255/11/1 256/12/1
f 257/9/1 258/10/1 259/11/1 260/12/1

g mesh_0004
f 261/9/1 262/10/1 263/11/1 264/12/1
f 265/9/1 266/10/1 267/11/1 268/12/1
f 269/9/1 270/10/1 271/11/1 272/12/1
f 273/9/1 274/10/1 275/11/1 276/12/1
f 277/9/1 278/10/1 279/11/1 280/12/1
f 281/9/1 282/10/1 283/11/1 284/12/1
f 285/9/1 286/10/1 287/11/1 288/12/1
f 289/9/1 290/10/1 291/11/1 292/12/1
f 293/9/1 294/10/1 295/11/1 296/12/1
f 297/9/1 298/10/1 299/11/1 300/12/1
f 301/9/1 302/10/1 303/11/1 304/12/1
f 305/9/1 306/10/1 307/11/1 308/12/1
f 309/9/1 310/10/1 311/11/1 312/12/1
f 313/9/1 314/10/1 315/11/1 316/12/1

g mesh_0005
f 317/13/1 318/14/1 319/15/1 320/16/1

g mesh_0006
f 321/17/1 322/18/1 323/19/1 324/20/1
f 325/17/1 317/18/1 320/19/1 326/20/1

g mesh_0007
f 327/21/1 328/22/1 108/23/1 329/24/1
f 122/25/1 327/26/1 329/27/1 330/28/1
f 331/29/1 122/30/1 330/31/1 332/32/1
f 333/33/1 331/34/1 332/35/1 121/36/1

g mesh_0008
f 334/37/1 335/38/1 336/39/1 91/40/1
f 337/41/1 334/42/1 91/43/1 338/44/1
f 339/45/1 340/46/1 93/47/1 335/48/1
f 107/49/1 339/50/1 335/51/1 334/52/1
f 341/53/1 107/54/1 334/55/1 337/56/1
f 329/57/1 108/58/1 340/59/1 339/60/1
f 287/61/1 341/62/1 337/63/1 105/64/1
f 330/65/1 329/66/1 339/67/1 107/68/1
f 332/69/1 330/70/1 107/71/1 341/72/1
f 121/73/1 332/74/1 341/75/1 287/76/1

g mesh_0009
f 342/77/1 343/78/1 344/79/1 345/80/1

g mesh_0010
f 346/81/1 209/82/1 212/83/1 347/84/1

